priority to bcd encoder/file.vcd
$date
	Sat May 15 19:32:14 2021
$end
$version
	Icarus Verilog
$end
$timescale
	1s
$end
$scope module design_tb $end
$var wire 1 ! y0 $end
$var wire 1 " y1 $end
$var wire 1 # y2 $end
$var wire 1 $ y $end
$var reg 1 % i0 $end
$var reg 1 & i1 $end
$var reg 1 ' i2 $end
$var reg 1 ( i3 $end
$var reg 1 ) i4 $end
$var reg 1 * i5 $end
$var reg 1 + i6 $end
$var reg 1 , i7 $end
$var integer 32 - i [31:0] $end
$scope module dut2 $end
$var wire 1 % i0 $end
$var wire 1 & i1 $end
$var wire 1 ' i2 $end
$var wire 1 ( i3 $end
$var wire 1 ) i4 $end
$var wire 1 * i5 $end
$var wire 1 + i6 $end
$var wire 1 , i7 $end
$var wire 1 ! y0 $end
$var wire 1 " y1 $end
$var wire 1 # y2 $end
$var wire 1 $ y $end
$var wire 1 . h7 $end
$var wire 1 / h6 $end
$var wire 1 0 h5 $end
$var wire 1 1 h4 $end
$var wire 1 2 h3 $end
$var wire 1 3 h2 $end
$var wire 1 4 h1 $end
$var wire 1 5 h0 $end
$var wire 1 6 I $end
$scope module dut $end
$var wire 1 6 I $end
$var wire 1 5 h0 $end
$var wire 1 4 h1 $end
$var wire 1 3 h2 $end
$var wire 1 2 h3 $end
$var wire 1 1 h4 $end
$var wire 1 0 h5 $end
$var wire 1 / h6 $end
$var wire 1 . h7 $end
$var wire 1 % i0 $end
$var wire 1 & i1 $end
$var wire 1 ' i2 $end
$var wire 1 ( i3 $end
$var wire 1 ) i4 $end
$var wire 1 * i5 $end
$var wire 1 + i6 $end
$var wire 1 , i7 $end
$upscope $end
$scope module dut1 $end
$var wire 1 5 h0 $end
$var wire 1 4 h1 $end
$var wire 1 3 h2 $end
$var wire 1 2 h3 $end
$var wire 1 1 h4 $end
$var wire 1 0 h5 $end
$var wire 1 / h6 $end
$var wire 1 . h7 $end
$var wire 1 ! y0 $end
$var wire 1 " y1 $end
$var wire 1 # y2 $end
$var wire 1 $ y $end
$upscope $end
$upscope $end
$upscope $end
$enddefinitions $end
#0
$dumpvars
16
05
04
03
02
01
00
0/
0.
b0 -
0,
0+
0*
0)
0(
0'
0&
0%
1$
z#
z"
z!
$end
#5
1!
1"
1#
0$
06
1.
1,
b1 -
#10
0!
1"
1#
0$
06
1/
0.
1+
0,
b10 -
#15
1,
b11 -
#20
0$
1!
0"
1#
06
10
0/
1*
0+
0,
b100 -
#25
1,
b101 -
#30
1+
0,
b110 -
#35
1,
b111 -
#40
0$
0!
0"
1#
06
11
00
1)
0*
0+
0,
b1000 -
#45
1,
b1001 -
#50
1+
0,
b1010 -
#55
1,
b1011 -
#60
1*
0+
0,
b1100 -
#65
1,
b1101 -
#70
1+
0,
b1110 -
#75
1,
b1111 -
#80
0$
06
1!
1"
0#
12
01
1(
0)
0*
0+
0,
b10000 -
#85
1,
b10001 -
#90
1+
0,
b10010 -
#95
1,
b10011 -
#100
1*
0+
0,
b10100 -
#105
1,
b10101 -
#110
1+
0,
b10110 -
#115
1,
b10111 -
#120
1)
0*
0+
0,
b11000 -
#125
1,
b11001 -
#130
1+
0,
b11010 -
#135
1,
b11011 -
#140
1*
0+
0,
b11100 -
#145
1,
b11101 -
#150
1+
0,
b11110 -
#155
1,
b11111 -
#160
0$
06
0!
1"
0#
13
02
1'
0(
0)
0*
0+
0,
b100000 -
#165
1,
b100001 -
#170
1+
0,
b100010 -
#175
1,
b100011 -
#180
1*
0+
0,
b100100 -
#185
1,
b100101 -
#190
1+
0,
b100110 -
#195
1,
b100111 -
#200
1)
0*
0+
0,
b101000 -
#205
1,
b101001 -
#210
1+
0,
b101010 -
#215
1,
b101011 -
#220
1*
0+
0,
b101100 -
#225
1,
b101101 -
#230
1+
0,
b101110 -
#235
1,
b101111 -
#240
1(
0)
0*
0+
0,
b110000 -
#245
1,
b110001 -
#250
1+
0,
b110010 -
#255
1,
b110011 -
#260
1*
0+
0,
b110100 -
#265
1,
b110101 -
#270
1+
0,
b110110 -
#275
1,
b110111 -
#280
1)
0*
0+
0,
b111000 -
#285
1,
b111001 -
#290
1+
0,
b111010 -
#295
1,
b111011 -
#300
1*
0+
0,
b111100 -
#305
1,
b111101 -
#310
1+
0,
b111110 -
#315
1,
b111111 -
#320
0$
06
1!
0"
0#
14
03
1&
0'
0(
0)
0*
0+
0,
b1000000 -
#325
1,
b1000001 -
#330
1+
0,
b1000010 -
#335
1,
b1000011 -
#340
1*
0+
0,
b1000100 -
#345
1,
b1000101 -
#350
1+
0,
b1000110 -
#355
1,
b1000111 -
#360
1)
0*
0+
0,
b1001000 -
#365
1,
b1001001 -
#370
1+
0,
b1001010 -
#375
1,
b1001011 -
#380
1*
0+
0,
b1001100 -
#385
1,
b1001101 -
#390
1+
0,
b1001110 -
#395
1,
b1001111 -
#400
1(
0)
0*
0+
0,
b1010000 -
#405
1,
b1010001 -
#410
1+
0,
b1010010 -
#415
1,
b1010011 -
#420
1*
0+
0,
b1010100 -
#425
1,
b1010101 -
#430
1+
0,
b1010110 -
#435
1,
b1010111 -
#440
1)
0*
0+
0,
b1011000 -
#445
1,
b1011001 -
#450
1+
0,
b1011010 -
#455
1,
b1011011 -
#460
1*
0+
0,
b1011100 -
#465
1,
b1011101 -
#470
1+
0,
b1011110 -
#475
1,
b1011111 -
#480
1'
0(
0)
0*
0+
0,
b1100000 -
#485
1,
b1100001 -
#490
1+
0,
b1100010 -
#495
1,
b1100011 -
#500
1*
0+
0,
b1100100 -
#505
1,
b1100101 -
#510
1+
0,
b1100110 -
#515
1,
b1100111 -
#520
1)
0*
0+
0,
b1101000 -
#525
1,
b1101001 -
#530
1+
0,
b1101010 -
#535
1,
b1101011 -
#540
1*
0+
0,
b1101100 -
#545
1,
b1101101 -
#550
1+
0,
b1101110 -
#555
1,
b1101111 -
#560
1(
0)
0*
0+
0,
b1110000 -
#565
1,
b1110001 -
#570
1+
0,
b1110010 -
#575
1,
b1110011 -
#580
1*
0+
0,
b1110100 -
#585
1,
b1110101 -
#590
1+
0,
b1110110 -
#595
1,
b1110111 -
#600
1)
0*
0+
0,
b1111000 -
#605
1,
b1111001 -
#610
1+
0,
b1111010 -
#615
1,
b1111011 -
#620
1*
0+
0,
b1111100 -
#625
1,
b1111101 -
#630
1+
0,
b1111110 -
#635
1,
b1111111 -
#640
0!
04
15
1%
0&
0'
0(
0)
0*
0+
0,
b10000000 -
#645
1,
b10000001 -
#650
1+
0,
b10000010 -
#655
1,
b10000011 -
#660
1*
0+
0,
b10000100 -
#665
1,
b10000101 -
#670
1+
0,
b10000110 -
#675
1,
b10000111 -
#680
1)
0*
0+
0,
b10001000 -
#685
1,
b10001001 -
#690
1+
0,
b10001010 -
#695
1,
b10001011 -
#700
1*
0+
0,
b10001100 -
#705
1,
b10001101 -
#710
1+
0,
b10001110 -
#715
1,
b10001111 -
#720
1(
0)
0*
0+
0,
b10010000 -
#725
1,
b10010001 -
#730
1+
0,
b10010010 -
#735
1,
b10010011 -
#740
1*
0+
0,
b10010100 -
#745
1,
b10010101 -
#750
1+
0,
b10010110 -
#755
1,
b10010111 -
#760
1)
0*
0+
0,
b10011000 -
#765
1,
b10011001 -
#770
1+
0,
b10011010 -
#775
1,
b10011011 -
#780
1*
0+
0,
b10011100 -
#785
1,
b10011101 -
#790
1+
0,
b10011110 -
#795
1,
b10011111 -
#800
1'
0(
0)
0*
0+
0,
b10100000 -
#805
1,
b10100001 -
#810
1+
0,
b10100010 -
#815
1,
b10100011 -
#820
1*
0+
0,
b10100100 -
#825
1,
b10100101 -
#830
1+
0,
b10100110 -
#835
1,
b10100111 -
#840
1)
0*
0+
0,
b10101000 -
#845
1,
b10101001 -
#850
1+
0,
b10101010 -
#855
1,
b10101011 -
#860
1*
0+
0,
b10101100 -
#865
1,
b10101101 -
#870
1+
0,
b10101110 -
#875
1,
b10101111 -
#880
1(
0)
0*
0+
0,
b10110000 -
#885
1,
b10110001 -
#890
1+
0,
b10110010 -
#895
1,
b10110011 -
#900
1*
0+
0,
b10110100 -
#905
1,
b10110101 -
#910
1+
0,
b10110110 -
#915
1,
b10110111 -
#920
1)
0*
0+
0,
b10111000 -
#925
1,
b10111001 -
#930
1+
0,
b10111010 -
#935
1,
b10111011 -
#940
1*
0+
0,
b10111100 -
#945
1,
b10111101 -
#950
1+
0,
b10111110 -
#955
1,
b10111111 -
#960
1&
0'
0(
0)
0*
0+
0,
b11000000 -
#965
1,
b11000001 -
#970
1+
0,
b11000010 -
#975
1,
b11000011 -
#980
1*
0+
0,
b11000100 -
#985
1,
b11000101 -
#990
1+
0,
b11000110 -
#995
1,
b11000111 -
#1000
1)
0*
0+
0,
b11001000 -
#1005
1,
b11001001 -
#1010
1+
0,
b11001010 -
#1015
1,
b11001011 -
#1020
1*
0+
0,
b11001100 -
#1025
1,
b11001101 -
#1030
1+
0,
b11001110 -
#1035
1,
b11001111 -
#1040
1(
0)
0*
0+
0,
b11010000 -
#1045
1,
b11010001 -
#1050
1+
0,
b11010010 -
#1055
1,
b11010011 -
#1060
1*
0+
0,
b11010100 -
#1065
1,
b11010101 -
#1070
1+
0,
b11010110 -
#1075
1,
b11010111 -
#1080
1)
0*
0+
0,
b11011000 -
#1085
1,
b11011001 -
#1090
1+
0,
b11011010 -
#1095
1,
b11011011 -
#1100
1*
0+
0,
b11011100 -
#1105
1,
b11011101 -
#1110
1+
0,
b11011110 -
#1115
1,
b11011111 -
#1120
1'
0(
0)
0*
0+
0,
b11100000 -
#1125
1,
b11100001 -
#1130
1+
0,
b11100010 -
#1135
1,
b11100011 -
#1140
1*
0+
0,
b11100100 -
#1145
1,
b11100101 -
#1150
1+
0,
b11100110 -
#1155
1,
b11100111 -
#1160
1)
0*
0+
0,
b11101000 -
#1165
1,
b11101001 -
#1170
1+
0,
b11101010 -
#1175
1,
b11101011 -
#1180
1*
0+
0,
b11101100 -
#1185
1,
b11101101 -
#1190
1+
0,
b11101110 -
#1195
1,
b11101111 -
#1200
1(
0)
0*
0+
0,
b11110000 -
#1205
1,
b11110001 -
#1210
1+
0,
b11110010 -
#1215
1,
b11110011 -
#1220
1*
0+
0,
b11110100 -
#1225
1,
b11110101 -
#1230
1+
0,
b11110110 -
#1235
1,
b11110111 -
#1240
1)
0*
0+
0,
b11111000 -
#1245
1,
b11111001 -
#1250
1+
0,
b11111010 -
#1255
1,
b11111011 -
#1260
1*
0+
0,
b11111100 -
#1265
1,
b11111101 -
#1270
1+
0,
b11111110 -
#1275
b11111111 -
