load counter/file1.vcd
$date
	Sun Jun 06 22:29:59 2021
$end
$version
	Icarus Verilog
$end
$timescale
	1s
$end
$scope module test $end
$var wire 4 ! count [3:0] $end
$var reg 1 " clk $end
$var reg 1 # rst $end
$var reg 1 $ up_down_bar $end
$upscope $end
$enddefinitions $end
#0
$dumpvars
x$
1#
0"
bx !
$end
#2
b0 !
1"
#4
0"
#6
1"
#8
0"
#10
1"
#12
0"
#14
1"
#16
0"
#17
0#
1$
#18
b1 !
1"
#20
0"
#22
b10 !
1"
#24
0"
#26
b11 !
1"
#28
0"
#30
b100 !
1"
#32
0"
#34
b101 !
1"
#36
0"
#38
b110 !
1"
#40
0"
#42
b111 !
1"
#44
0"
#46
b1000 !
1"
#48
0"
#50
b1001 !
1"
#52
0"
#54
b1010 !
1"
#56
0"
#58
b1011 !
1"
#60
0"
#62
b1100 !
1"
#64
0"
#66
b1101 !
1"
#68
0"
#70
b1110 !
1"
#72
0"
#74
b1111 !
1"
#76
0"
#78
b0 !
1"
#80
0"
#82
b1 !
1"
#84
0"
#86
b10 !
1"
#88
0"
#90
b11 !
1"
#92
0"
#94
b100 !
1"
#96
0"
#98
b101 !
1"
#100
0"
#102
b110 !
1"
#104
0"
#106
b111 !
1"
#108
0"
#110
b1000 !
1"
#112
0"
#114
b1001 !
1"
#116
0"
#118
b1010 !
1"
#120
0"
#122
b1011 !
1"
#124
0"
#126
b1100 !
1"
#128
0"
#130
b1101 !
1"
#132
0"
#134
b1110 !
1"
#136
0"
#138
b1111 !
1"
#140
0"
#142
b0 !
1"
#144
0"
#146
b1 !
1"
#148
0"
#150
b10 !
1"
#152
0"
#154
b11 !
1"
#156
0"
#158
b100 !
1"
#160
0"
#162
b101 !
1"
#164
0"
#166
b110 !
1"
#168
0"
#170
b111 !
1"
#172
0"
#174
b1000 !
1"
#176
0"
#178
b1001 !
1"
#179
0$
#180
0"
#182
b1000 !
1"
#184
0"
#186
b111 !
1"
#188
0"
#190
b110 !
1"
#192
0"
#194
b101 !
1"
#196
0"
#198
b100 !
1"
#200
0"
#202
b11 !
1"
#204
0"
#206
b10 !
1"
#208
0"
#210
b1 !
1"
#212
0"
#214
b0 !
1"
#216
0"
#218
b1111 !
1"
#220
0"
#222
b1110 !
1"
#224
0"
#226
b1101 !
1"
#228
0"
#230
b1100 !
1"
#232
0"
#234
b1011 !
1"
#236
0"
#238
b1010 !
1"
#240
0"
#242
b1001 !
1"
#244
0"
#246
b1000 !
1"
#248
0"
#250
b111 !
1"
#252
0"
#254
b110 !
1"
#256
0"
#258
b101 !
1"
#260
0"
#262
b100 !
1"
#264
0"
#266
b11 !
1"
#268
0"
#270
b10 !
1"
#272
0"
#274
b1 !
1"
#276
0"
#278
b0 !
1"
#280
0"
#282
b1111 !
1"
#284
0"
#286
b1110 !
1"
#288
0"
#290
b1101 !
1"
#292
0"
#294
b1100 !
1"
#296
0"
#298
b1011 !
1"
#300
0"
#302
b1010 !
1"
#304
0"
#306
b1001 !
1"
#308
0"
#310
b1000 !
1"
#312
0"
#314
b111 !
1"
#316
0"
#318
b110 !
1"
#320
0"
#322
b101 !
1"
#324
0"
#326
b100 !
1"
