load counter/file.vcd
$date
	Sun Jun 06 22:04:11 2021
$end
$version
	Icarus Verilog
$end
$timescale
	1s
$end
$scope module tb $end
$var wire 4 ! count [3:0] $end
$var reg 1 " clk $end
$var reg 4 # data [3:0] $end
$var reg 1 $ load $end
$var reg 1 % rst $end
$upscope $end
$enddefinitions $end
#0
$dumpvars
1%
0$
bx #
0"
bx !
$end
#1
b0 !
1"
#2
0"
0%
#3
b1 !
1"
#4
0"
#5
b10 !
1"
#6
0"
#7
b11 !
1"
#8
0"
#9
b100 !
1"
#10
0"
#11
b101 !
1"
#12
0"
#13
b110 !
1"
#14
0"
#15
b111 !
1"
#16
0"
#17
b1000 !
1"
#18
0"
#19
b1001 !
1"
#20
0"
#21
b1010 !
1"
#22
0"
#23
b1011 !
1"
#24
0"
#25
b0 !
1"
#26
0"
#27
b1 !
1"
#28
0"
#29
b10 !
1"
#30
0"
#31
b11 !
1"
#32
0"
#33
b100 !
1"
#34
0"
#35
b101 !
1"
#36
0"
#37
b110 !
1"
#38
0"
#39
b111 !
1"
#40
0"
#41
b1000 !
1"
#42
0"
#43
b1001 !
1"
#44
0"
#45
b1010 !
1"
#46
0"
#47
b1011 !
1"
#48
0"
#49
b0 !
1"
#50
0"
#51
b1 !
1"
#52
0"
b1 #
1$
#53
1"
#54
0"
bx #
0$
#55
b10 !
1"
#56
0"
#57
b11 !
1"
#58
0"
#59
b100 !
1"
#60
0"
#61
b101 !
1"
#62
0"
#63
b110 !
1"
#64
0"
#65
b111 !
1"
#66
0"
#67
b1000 !
1"
#68
0"
#69
b1001 !
1"
#70
0"
#71
b1010 !
1"
#72
0"
#73
b1011 !
1"
#74
0"
#75
b0 !
1"
#76
0"
#77
b1 !
1"
#78
0"
#79
b10 !
1"
#80
0"
#81
b11 !
1"
#82
0"
#83
b100 !
1"
#84
0"
#85
b101 !
1"
#86
0"
#87
b110 !
1"
#88
0"
#89
b111 !
1"
#90
0"
#91
b1000 !
1"
#92
0"
#93
b1001 !
1"
#94
0"
b1 #
1$
#95
b1 !
1"
#96
0"
bx #
0$
#97
b10 !
1"
#98
0"
#99
b11 !
1"
#100
0"
#101
b100 !
1"
#102
0"
#103
b101 !
1"
#104
0"
#105
b110 !
1"
#106
0"
#107
b111 !
1"
#108
0"
#109
b1000 !
1"
#110
0"
#111
b1001 !
1"
#112
0"
#113
b1010 !
1"
#114
0"
#115
b1011 !
1"
#116
0"
#117
b0 !
1"
#118
0"
#119
b1 !
1"
#120
0"
#121
b10 !
1"
#122
0"
#123
b11 !
1"
#124
0"
#125
b100 !
1"
#126
0"
#127
b101 !
1"
#128
0"
#129
b110 !
1"
#130
0"
#131
b111 !
1"
#132
0"
#133
b1000 !
1"
#134
0"
#135
b1001 !
1"
#136
0"
#137
b1010 !
1"
#138
0"
#139
b1011 !
1"
#140
0"
#141
b0 !
1"
#142
0"
#143
b1 !
1"
#144
0"
#145
b10 !
1"
#146
0"
#147
b11 !
1"
#148
0"
#149
b100 !
1"
#150
0"
#151
b101 !
1"
#152
0"
#153
b110 !
1"
#154
0"
#155
b111 !
1"
#156
0"
#157
b1000 !
1"
#158
0"
#159
b1001 !
1"
#160
0"
#161
b1010 !
1"
#162
0"
#163
b1011 !
1"
#164
0"
#165
b0 !
1"
#166
0"
#167
b1 !
1"
#168
0"
#169
b10 !
1"
#170
0"
#171
b11 !
1"
#172
0"
#173
b100 !
1"
#174
0"
#175
b101 !
1"
#176
0"
#177
b110 !
1"
#178
0"
#179
b111 !
1"
#180
0"
#181
b1000 !
1"
#182
0"
#183
b1001 !
1"
#184
0"
#185
b1010 !
1"
